module gitlab.com/backend-logging-library/logging-library

go 1.19

require (
	github.com/google/uuid v1.3.1 // indirect
	go.uber.org/multierr v1.10.0 // indirect
	go.uber.org/zap v1.25.0 // indirect
)
